{
    "component": {
        "id": 10,
        "description": "double",
        "stateNumber": 4,
        "symbolNumber": 3,
        "basics": [
            {"id": 0, "value": "digit"},
            {"id": 1, "value": "delimiter"}
        ],
        "symbols": [
            {"id": 2, "value": "."}
        ],
        "finals": [3],
        "transitions": [
            {"from": 0, "to": 1, "letter": 0},
            {"from": 1, "to": 1, "letter": 0},
            {"from": 1, "to": 2, "letter": 2},
            {"from": 2, "to": 2, "letter": 0},
            {"from": 2, "to": 3, "letter": 1},
        ]
    }
}
