{
    "component": {
        "id": 1,
        "description": "id",
        "stateNumber": 3,
        "symbolNumber": 3,
        "basics": [
            {"id": 0, "value": "letter"},
            {"id": 1, "value": "digit"},
            {"id": 2, "value": "delimiter"}
        ],
        "symbols": [],
        "finals": [2],
        "transitions": [
            {"from": 0, "to": 1, "letter": 0},
            {"from": 1, "to": 1, "letter": 1},
            {"from": 1, "to": 1, "letter": 0},
            {"from": 1, "to": 2, "letter": 2}
        ]
    }
}
