{
    "component": {
        "id": 8,
        "description": "string",
        "stateNumber": 4,
        "symbolNumber": 3,
        "basics": [
            {"id": 1, "value": "any"}
        ],
        "symbols": [
            {"id": 2, "value": "\""},
            {"id": 3, "value": "\\"}
        ],
        "finals": [2],
        "transitions": [
            {"from": 0, "to": 1, "letter": 2},
            {"from": 1, "to": 1, "letter": 1},
            {"from": 1, "to": 2, "letter": 2},
            {"from": 2, "to": 3, "letter": 3},
            {"from": 3, "to": 1, "letter": 1}
        ]
    }
}

